<mxfile host="app.diagrams.net" modified="2021-10-21T05:44:31.486Z" agent="5.0 (Windows NT 10.0; Win64; x64) AppleWebKit/537.36 (KHTML, like Gecko) Chrome/93.0.4577.82 YaBrowser/21.9.1.684 Yowser/2.5 Safari/537.36" etag="cpjIP9_vexz3fl9bKMav" version="15.5.6" type="gitlab">
  <diagram id="AZptz5e79o3V8gupHllQ" name="Page-1">
    <mxGraphModel dx="1038" dy="551" grid="1" gridSize="10" guides="1" tooltips="1" connect="1" arrows="1" fold="1" page="1" pageScale="1" pageWidth="827" pageHeight="1169" math="0" shadow="0">
      <root>
        <mxCell id="0" />
        <mxCell id="1" parent="0" />
        <mxCell id="gufo76c-2xZYBr_RxqPd-1" value="" style="rounded=1;whiteSpace=wrap;html=1;fillColor=#ffff88;strokeColor=#36393d;" vertex="1" parent="1">
          <mxGeometry x="50" y="90" width="1140" height="350" as="geometry" />
        </mxCell>
        <mxCell id="gufo76c-2xZYBr_RxqPd-2" value="&lt;h6&gt;&lt;font style=&quot;font-size: 12px ; line-height: 0.7&quot;&gt;Просмотр&amp;nbsp;&lt;/font&gt;&lt;font style=&quot;font-size: 12px ; line-height: 0.7&quot;&gt;учебного&lt;br&gt; &lt;/font&gt;&lt;font style=&quot;font-size: 12px ; line-height: 0.7&quot;&gt;расписания&lt;/font&gt;&lt;/h6&gt;" style="text;strokeColor=none;fillColor=none;html=1;fontSize=24;fontStyle=1;verticalAlign=middle;align=center;" vertex="1" parent="1">
          <mxGeometry x="580" y="110" width="130" as="geometry" />
        </mxCell>
        <mxCell id="gufo76c-2xZYBr_RxqPd-3" value="" style="ellipse;html=1;shape=endState;fillColor=#000000;strokeColor=#ff0000;fontSize=12;" vertex="1" parent="1">
          <mxGeometry x="815" y="360" width="30" height="30" as="geometry" />
        </mxCell>
        <mxCell id="gufo76c-2xZYBr_RxqPd-4" value="" style="ellipse;html=1;shape=startState;fillColor=#000000;strokeColor=#ff0000;fontSize=12;" vertex="1" parent="1">
          <mxGeometry x="10" y="245" width="30" height="30" as="geometry" />
        </mxCell>
        <mxCell id="gufo76c-2xZYBr_RxqPd-5" value="" style="edgeStyle=orthogonalEdgeStyle;html=1;verticalAlign=bottom;endArrow=open;endSize=8;strokeColor=#ff0000;rounded=0;fontSize=12;entryX=0;entryY=0.5;entryDx=0;entryDy=0;" edge="1" parent="1" target="gufo76c-2xZYBr_RxqPd-6">
          <mxGeometry relative="1" as="geometry">
            <mxPoint x="35" y="330" as="targetPoint" />
            <mxPoint x="40" y="260" as="sourcePoint" />
          </mxGeometry>
        </mxCell>
        <mxCell id="gufo76c-2xZYBr_RxqPd-6" value="Вход на сайт" style="rounded=1;whiteSpace=wrap;html=1;fontSize=12;" vertex="1" parent="1">
          <mxGeometry x="90" y="230" width="120" height="60" as="geometry" />
        </mxCell>
        <mxCell id="gufo76c-2xZYBr_RxqPd-9" value="Condition" style="strokeWidth=2;html=1;shape=mxgraph.flowchart.decision;whiteSpace=wrap;fontSize=12;" vertex="1" parent="1">
          <mxGeometry x="260" y="230" width="100" height="60" as="geometry" />
        </mxCell>
        <mxCell id="gufo76c-2xZYBr_RxqPd-10" value="" style="html=1;verticalAlign=bottom;endArrow=block;rounded=0;fontSize=12;exitX=1;exitY=0.5;exitDx=0;exitDy=0;entryX=0;entryY=0.5;entryDx=0;entryDy=0;entryPerimeter=0;" edge="1" parent="1" source="gufo76c-2xZYBr_RxqPd-6" target="gufo76c-2xZYBr_RxqPd-9">
          <mxGeometry x="0.1429" y="20" width="80" relative="1" as="geometry">
            <mxPoint x="340" y="260" as="sourcePoint" />
            <mxPoint x="300" y="260" as="targetPoint" />
            <mxPoint as="offset" />
          </mxGeometry>
        </mxCell>
        <mxCell id="gufo76c-2xZYBr_RxqPd-12" value="Yes" style="html=1;verticalAlign=bottom;endArrow=block;rounded=0;fontSize=12;exitX=1;exitY=0.5;exitDx=0;exitDy=0;exitPerimeter=0;entryX=0;entryY=0.5;entryDx=0;entryDy=0;" edge="1" parent="1" source="gufo76c-2xZYBr_RxqPd-9" target="gufo76c-2xZYBr_RxqPd-17">
          <mxGeometry width="80" relative="1" as="geometry">
            <mxPoint x="440" y="260" as="sourcePoint" />
            <mxPoint x="520" y="260" as="targetPoint" />
          </mxGeometry>
        </mxCell>
        <mxCell id="gufo76c-2xZYBr_RxqPd-13" value="No" style="html=1;verticalAlign=bottom;endArrow=block;rounded=0;fontSize=12;exitX=0.5;exitY=1;exitDx=0;exitDy=0;exitPerimeter=0;entryX=0.5;entryY=0;entryDx=0;entryDy=0;" edge="1" parent="1" source="gufo76c-2xZYBr_RxqPd-9" target="gufo76c-2xZYBr_RxqPd-14">
          <mxGeometry x="0.3333" y="20" width="80" relative="1" as="geometry">
            <mxPoint x="440" y="270" as="sourcePoint" />
            <mxPoint x="530" y="270" as="targetPoint" />
            <mxPoint as="offset" />
          </mxGeometry>
        </mxCell>
        <mxCell id="gufo76c-2xZYBr_RxqPd-14" value="Вход не выполнен&lt;br&gt;exit:couldn&#39;t log in" style="rounded=1;whiteSpace=wrap;html=1;fontSize=12;" vertex="1" parent="1">
          <mxGeometry x="270" y="320" width="80" height="60" as="geometry" />
        </mxCell>
        <mxCell id="gufo76c-2xZYBr_RxqPd-17" value="Переход на вкладку&lt;br&gt;&quot;Учебное расписание&quot;" style="rounded=1;whiteSpace=wrap;html=1;fontSize=12;" vertex="1" parent="1">
          <mxGeometry x="390" y="230" width="120" height="60" as="geometry" />
        </mxCell>
        <mxCell id="gufo76c-2xZYBr_RxqPd-20" value="Скачать информацию об учебном расписании" style="rounded=1;whiteSpace=wrap;html=1;fontSize=12;" vertex="1" parent="1">
          <mxGeometry x="610" y="230" width="120" height="60" as="geometry" />
        </mxCell>
        <mxCell id="gufo76c-2xZYBr_RxqPd-22" value="Condition" style="strokeWidth=2;html=1;shape=mxgraph.flowchart.decision;whiteSpace=wrap;fontSize=12;" vertex="1" parent="1">
          <mxGeometry x="780" y="230" width="100" height="60" as="geometry" />
        </mxCell>
        <mxCell id="gufo76c-2xZYBr_RxqPd-25" value="No" style="html=1;verticalAlign=bottom;endArrow=block;rounded=0;fontSize=12;exitX=1;exitY=0.5;exitDx=0;exitDy=0;exitPerimeter=0;entryX=0;entryY=0.5;entryDx=0;entryDy=0;" edge="1" parent="1" source="gufo76c-2xZYBr_RxqPd-22" target="gufo76c-2xZYBr_RxqPd-28">
          <mxGeometry width="80" relative="1" as="geometry">
            <mxPoint x="910" y="259.5" as="sourcePoint" />
            <mxPoint x="990" y="259.5" as="targetPoint" />
          </mxGeometry>
        </mxCell>
        <mxCell id="gufo76c-2xZYBr_RxqPd-27" value="Yes" style="html=1;verticalAlign=bottom;endArrow=block;rounded=0;fontSize=12;entryX=0.5;entryY=0;entryDx=0;entryDy=0;exitX=0.5;exitY=1;exitDx=0;exitDy=0;exitPerimeter=0;" edge="1" parent="1" source="gufo76c-2xZYBr_RxqPd-22" target="gufo76c-2xZYBr_RxqPd-3">
          <mxGeometry width="80" relative="1" as="geometry">
            <mxPoint x="510" y="270" as="sourcePoint" />
            <mxPoint x="590" y="270" as="targetPoint" />
          </mxGeometry>
        </mxCell>
        <mxCell id="gufo76c-2xZYBr_RxqPd-28" value="Скачать не удалось&lt;br&gt;exit:download not&amp;nbsp;&lt;span&gt;successful&lt;/span&gt;&lt;br&gt;&amp;nbsp;" style="rounded=1;whiteSpace=wrap;html=1;fontSize=12;" vertex="1" parent="1">
          <mxGeometry x="1000" y="230" width="120" height="60" as="geometry" />
        </mxCell>
        <mxCell id="gufo76c-2xZYBr_RxqPd-30" value="re-submit the&amp;nbsp;schedule&amp;nbsp;" style="html=1;verticalAlign=bottom;endArrow=block;rounded=0;fontSize=12;exitX=1;exitY=0.5;exitDx=0;exitDy=0;entryX=0.5;entryY=0;entryDx=0;entryDy=0;" edge="1" parent="1" source="gufo76c-2xZYBr_RxqPd-28" target="gufo76c-2xZYBr_RxqPd-20">
          <mxGeometry width="80" relative="1" as="geometry">
            <mxPoint x="1130" y="259.5" as="sourcePoint" />
            <mxPoint x="1210" y="259.5" as="targetPoint" />
            <Array as="points">
              <mxPoint x="1160" y="260" />
              <mxPoint x="1160" y="210" />
              <mxPoint x="1160" y="150" />
              <mxPoint x="1120" y="150" />
              <mxPoint x="670" y="150" />
            </Array>
          </mxGeometry>
        </mxCell>
        <mxCell id="gufo76c-2xZYBr_RxqPd-32" value="Switching to a tab" style="html=1;verticalAlign=bottom;endArrow=block;rounded=0;fontSize=12;exitX=1;exitY=0.5;exitDx=0;exitDy=0;entryX=0;entryY=0.5;entryDx=0;entryDy=0;" edge="1" parent="1" source="gufo76c-2xZYBr_RxqPd-17" target="gufo76c-2xZYBr_RxqPd-20">
          <mxGeometry width="80" relative="1" as="geometry">
            <mxPoint x="560" y="259.5" as="sourcePoint" />
            <mxPoint x="640" y="259.5" as="targetPoint" />
          </mxGeometry>
        </mxCell>
        <mxCell id="gufo76c-2xZYBr_RxqPd-34" value="" style="html=1;verticalAlign=bottom;endArrow=block;rounded=0;fontSize=12;exitX=1;exitY=0.5;exitDx=0;exitDy=0;entryX=0;entryY=0.5;entryDx=0;entryDy=0;entryPerimeter=0;" edge="1" parent="1" source="gufo76c-2xZYBr_RxqPd-20" target="gufo76c-2xZYBr_RxqPd-22">
          <mxGeometry width="80" relative="1" as="geometry">
            <mxPoint x="747" y="190" as="sourcePoint" />
            <mxPoint x="827" y="190" as="targetPoint" />
          </mxGeometry>
        </mxCell>
        <mxCell id="gufo76c-2xZYBr_RxqPd-35" value="return to the entrance" style="html=1;verticalAlign=bottom;endArrow=block;rounded=0;fontSize=12;entryX=0.5;entryY=1;entryDx=0;entryDy=0;exitX=0;exitY=0.5;exitDx=0;exitDy=0;" edge="1" parent="1" source="gufo76c-2xZYBr_RxqPd-14" target="gufo76c-2xZYBr_RxqPd-6">
          <mxGeometry x="-0.3333" y="-10" width="80" relative="1" as="geometry">
            <mxPoint x="120" y="390" as="sourcePoint" />
            <mxPoint x="200" y="390" as="targetPoint" />
            <Array as="points">
              <mxPoint x="150" y="350" />
            </Array>
            <mxPoint as="offset" />
          </mxGeometry>
        </mxCell>
      </root>
    </mxGraphModel>
  </diagram>
</mxfile>
